<?xml version="1.0" encoding="iso-8859-1"?>
<!-- Generator: Adobe Illustrator 19.0.0, SVG Export Plug-In . SVG Version: 6.00 Build 0)  -->
<svg version="1.1" id="Capa_1" xmlns="http://www.w3.org/2000/svg" xmlns:xlink="http://www.w3.org/1999/xlink" x="0px" y="0px"
	 viewBox="0 0 285.255 285.255" style="enable-background:new 0 0 285.255 285.255;" xml:space="preserve"  fill="#4a4a4a">
<g>
	<path d="M205.917,24.039c-3.065-1.265-6.571,0.193-7.835,3.256c-1.265,3.063,0.193,6.571,3.256,7.835
		c43.688,18.036,71.917,60.231,71.917,107.497c0,64.098-52.147,116.245-116.246,116.245c-3.314,0-6,2.687-6,6s2.686,6,6,6
		c70.715,0,128.246-57.53,128.246-128.245C285.255,90.485,254.113,43.936,205.917,24.039z"/>
	<path d="M157.009,225.93c45.934,0,83.304-37.37,83.304-83.303s-37.37-83.303-83.304-83.303c-3.313,0-6,2.687-6,6
		c0,3.314,2.687,6,6,6c39.317,0,71.304,31.986,71.304,71.303s-31.987,71.303-71.304,71.303c-3.313,0-6,2.686-6,6
		C151.009,223.244,153.696,225.93,157.009,225.93z"/>
	<path d="M176.538,163.604c-2.424,2.258-2.559,6.055-0.3,8.479c1.182,1.269,2.784,1.911,4.392,1.911c1.464,0,2.932-0.533,4.088-1.61
		c8.231-7.667,12.952-18.513,12.952-29.757c0-22.419-18.24-40.659-40.66-40.659c-3.313,0-6,2.687-6,6s2.687,6,6,6
		c15.803,0,28.66,12.856,28.66,28.659C185.669,150.669,182.426,158.118,176.538,163.604z"/>
	<path d="M130.79,14.84c-2.241-0.928-4.821-0.417-6.538,1.296L60.844,79.448H6c-3.313,0-6,2.687-6,6v114.358c0,3.313,2.687,6,6,6
		h57.326c3.313,0,6-2.687,6-6s-2.687-6-6-6H12V91.448h51.326c1.59,0,3.114-0.631,4.239-1.754l54.926-54.842v215.551L92.864,220.82
		c-2.346-2.341-6.145-2.339-8.485,0.007c-2.341,2.345-2.338,6.144,0.007,8.485l39.867,39.806c1.147,1.146,2.681,1.754,4.241,1.754
		c0.773,0,1.554-0.149,2.297-0.458c2.241-0.929,3.702-3.117,3.702-5.542V20.382C134.491,17.956,133.03,15.769,130.79,14.84z"/>
</g>
<g>
</g>
<g>
</g>
<g>
</g>
<g>
</g>
<g>
</g>
<g>
</g>
<g>
</g>
<g>
</g>
<g>
</g>
<g>
</g>
<g>
</g>
<g>
</g>
<g>
</g>
<g>
</g>
<g>
</g>
</svg>
